field	type	handlers	store	predict	category
date_observation	string	split_date	yes	no	symbolic
id_parcelle	string	-	yes	no	symbolic
valeur_classe	int	-	yes	yes	numerical
libelle_stade	string	-	yes	no	symbolic
ool	string	-	yes	no	symbolic
libelle_culture	string	-	yes	no	symbolic
variete	string	-	yes	no	symbolic
date_semis	string	split_date	yes	no	symbolic
campagne	string	-	yes	no	symbolic
fobs	string	-	yes	no	symbolic
fdef	string	-	yes	no	symbolic
forig	string	-	yes	no	symbolic
libelle_maladie	string	-	yes	no	symbolic
RS	float	-	yes	no	numerical
RR	float	sumHistoryPrecipitation	yes	no	numerical
TN	float	daysAboveMinThreshold	yes	no	numerical
TX	float	daysBelowMaxThreshold	yes	no	numerical
TM	float	sumHistoryTemperature	yes	no	numerical
RG	float	addHistoricalMeteo	yes	no	numerical
HR	float	addHistoricalMeteo	yes	no	numerical
V10	float	addHistoricalMeteo	yes	no	numerical
ETP	float	addHistoricalMeteo	yes	no	numerical
resistance	string	-	yes	no	symbolic
