field	type	handlers	store	predict	category
date_obs	string	split_date	yes	no	symbolic
semaine_obs	int	-	yes	no	symbolic
nom_parcelle	string	-	yes	no	symbolic
type_suivi	string	-	yes	no	symbolic
commune_parcelle	string	-	yes	no	symbolic
insee_parcelle	string	-	yes	no	symbolic
cepage	string	-	yes	no	symbolic
nom_organism	string	tostr	yes	no	symbolic
siret_organism	string	tostr	yes	no	symbolic
stade_pheno	string	tostr	yes	no	symbolic
n_cep	int	addHistorical	yes	no	numerical
mfi	float	addHistorical	yes	no	numerical
mgi	float	addHistorical	yes	no	numerical
ofi	float	addHistorical	yes	no	numerical
ogi	float	addHistorical	yes	no	numerical
bfi	float	addHistorical	yes	no	numerical
bgi	float	addHistorical	yes	no	numerical
pfi	float	addHistorical	yes	no	numerical
pgi	float	addHistorical	yes	no	numerical
mff	float	addHistorical	yes	yes	numerical
mgf	float	addHistorical	yes	yes	numerical
off	float	addHistorical	yes	yes	numerical
ogf	float	addHistorical	yes	yes	numerical
bff	float	addHistorical	yes	yes	numerical
bgf	float	addHistorical	yes	yes	numerical
pff	float	addHistorical	yes	yes	numerical
pgf	float	addHistorical	yes	yes	numerical
mcf	float	addHistorical	yes	yes	numerical
bcf	float	addHistorical	yes	yes	numerical
pcf	float	addHistorical	yes	yes	numerical
ocf	float	addHistorical	yes	yes	numerical
insee_coord	list	split_coordinates	yes	no	symbolic
timestamp	float	-	yes	no	numerical
longitude	float	-	yes	no	numerical
latitude	float	-	yes	no	numerical
year	int	-	no	no	symbolic
month	int	-	no	no	symbolic
day	int	-	yes	no	symbolic
nom_piege	string	-	yes	no	symbolic
commune_piege	string	-	yes	no	symbolic
insee_piege	string	-	yes	no	symbolic
type_piege	string	-	yes	no	symbolic
eudemis	int	addHistorical	yes	yes	numerical
cochylis	int	addHistorical	yes	yes	numerical
eulia	int	addHistorical	yes	yes	numerical
cic_verte	int	addHistorical	yes	yes	numerical
cic_flavescence	int	addHistorical	yes	yes	numerical
cic_boisnoir	int	addHistorical	yes	yes	numerical
suzukii	int	addHistorical	yes	yes	numerical
acariose	int	addHistorical	yes	yes	numerical
ceps_acariose	int	addHistorical	yes	yes	numerical
acarien_rouge	int	addHistorical	yes	yes	numerical
feuilles_acarienr	int	addHistorical	yes	yes	numerical
acarien_jaune	int	addHistorical	yes	yes	numerical
feuilles_acarienj	int	addHistorical	yes	yes	numerical
metcalfa	int	addHistorical	yes	yes	numerical
ceps_metcalfa	int	addHistorical	yes	yes	numerical
pyrale	int	addHistorical	yes	yes	numerical
ceps_pyrale	int	addHistorical	yes	yes	numerical
erinose	int	addHistorical	yes	yes	numerical
ouefs_vdg	int	addHistorical	yes	yes	numerical
grappes_ouefsvdg	int	addHistorical	yes	yes	numerical
eudemis_glom	int	addHistorical	yes	yes	numerical
grappes_eug	int	addHistorical	yes	yes	numerical
eudemis_perf	int	addHistorical	yes	yes	numerical
grappes_eup	int	addHistorical	yes	yes	numerical
cochylis_glom	int	addHistorical	yes	yes	numerical
grappes_cog	int	addHistorical	yes	yes	numerical
cochylis_perf	int	addHistorical	yes	yes	numerical
grappes_cop	int	addHistorical	yes	yes	numerical
larves_cic_grillures	int	addHistorical	yes	yes	numerical
feuilles_larvescicg	int	addHistorical	yes	yes	numerical
f_acariose	float	addHistorical	yes	yes	numerical
f_acarien_rouge	float	addHistorical	yes	yes	numerical
f_acarien_jaune	float	addHistorical	yes	yes	numerical
f_metcalfa	float	addHistorical	yes	yes	numerical
f_pyrale	float	addHistorical	yes	yes	numerical
f_erinose	float	addHistorical	yes	yes	numerical
f_ouefs_vdg	float	addHistorical	yes	yes	numerical
f_glomerules_eudemis	float	addHistorical	yes	yes	numerical
f_perforations_eudemis	float	addHistorical	yes	yes	numerical
f_glomerules_cochylis	float	addHistorical	yes	yes	numerical
f_perforations_cochylis	float	addHistorical	yes	yes	numerical
f_larves_cicadelle_grillures	float	addHistorical	yes	yes	numerical
f_thrips	float	addHistorical	yes	yes	numerical
f_typhlodromes	float	addHistorical	yes	yes	numerical
RS	float	-	yes	no	numerical
RR	float	sumHistoryPrecipitation	yes	no	numerical
TN	float	daysAboveMinThreshold	yes	no	numerical
TX	float	daysBelowMaxThreshold	yes	no	numerical
TM	float	sumHistoryTemperature	yes	no	numerical
RG	float	addHistoricalMeteo	yes	no	numerical
HR	float	addHistoricalMeteo	yes	no	numerical
V10	float	addHistoricalMeteo	yes	no	numerical
ETP	float	addHistoricalMeteo	yes	no	numerical
