<?xml version="1.0" encoding="UTF-8" standalone="no"?>
<!-- Created with Inkscape (http://www.inkscape.org/) -->

<svg
   xmlns:dc="http://purl.org/dc/elements/1.1/"
   xmlns:cc="http://creativecommons.org/ns#"
   xmlns:rdf="http://www.w3.org/1999/02/22-rdf-syntax-ns#"
   xmlns:svg="http://www.w3.org/2000/svg"
   xmlns="http://www.w3.org/2000/svg"
   xmlns:sodipodi="http://sodipodi.sourceforge.net/DTD/sodipodi-0.dtd"
   xmlns:inkscape="http://www.inkscape.org/namespaces/inkscape"
   width="266.1651mm"
   height="95.756599mm"
   viewBox="0 0 266.1651 95.756599"
   version="1.1"
   id="svg8"
   inkscape:version="0.92.2 (5c3e80d, 2017-08-06)"
   sodipodi:docname="decision-tree-splitting.svg"
   inkscape:export-filename="/home/lgalarra/git/numerical-rule-mining/paper/figures/decision-tree-splitting.pdf.png"
   inkscape:export-xdpi="47.670742"
   inkscape:export-ydpi="47.670742">
  <defs
     id="defs2">
    <marker
       inkscape:stockid="Arrow1Sstart"
       orient="auto"
       refY="0"
       refX="0"
       id="Arrow1Sstart"
       style="overflow:visible"
       inkscape:isstock="true">
      <path
         id="path939"
         d="M 0,0 5,-5 -12.5,0 5,5 Z"
         style="fill-rule:evenodd;stroke:#000000;stroke-width:1.00000003pt"
         transform="matrix(0.2,0,0,0.2,1.2,0)"
         inkscape:connector-curvature="0" />
    </marker>
  </defs>
  <sodipodi:namedview
     id="base"
     pagecolor="#ffffff"
     bordercolor="#666666"
     borderopacity="1.0"
     inkscape:pageopacity="0.0"
     inkscape:pageshadow="2"
     inkscape:zoom="0.9899495"
     inkscape:cx="560.94482"
     inkscape:cy="199.63563"
     inkscape:document-units="mm"
     inkscape:current-layer="layer1"
     showgrid="false"
     inkscape:window-width="1920"
     inkscape:window-height="1122"
     inkscape:window-x="1920"
     inkscape:window-y="26"
     inkscape:window-maximized="1"
     fit-margin-top="0"
     fit-margin-left="0"
     fit-margin-right="0"
     fit-margin-bottom="0" />
  <metadata
     id="metadata5">
    <rdf:RDF>
      <cc:Work
         rdf:about="">
        <dc:format>image/svg+xml</dc:format>
        <dc:type
           rdf:resource="http://purl.org/dc/dcmitype/StillImage" />
        <dc:title></dc:title>
      </cc:Work>
    </rdf:RDF>
  </metadata>
  <g
     inkscape:label="Layer 1"
     inkscape:groupmode="layer"
     id="layer1"
     transform="translate(-9.4901367,-138.5936)">
    <flowRoot
       xml:space="preserve"
       id="flowRoot4537"
       style="font-style:normal;font-weight:normal;line-height:0.01%;font-family:sans-serif;letter-spacing:0px;word-spacing:0px;fill:#000000;fill-opacity:1;stroke:none"
       transform="matrix(0.26458333,0,0,0.26458333,0,87)"><flowRegion
         id="flowRegion4539"><rect
           id="rect4541"
           width="112.85714"
           height="104.28571"
           x="82.85714"
           y="297.98651" /></flowRegion><flowPara
         id="flowPara4543"
         style="font-size:40px;line-height:1.25">Variety</flowPara></flowRoot>    <flowRoot
       xml:space="preserve"
       id="flowRoot4545"
       style="font-style:normal;font-weight:normal;line-height:0.01%;font-family:sans-serif;letter-spacing:0px;word-spacing:0px;fill:#000000;fill-opacity:1;stroke:none"
       transform="matrix(0.26458333,0,0,0.26458333,0,87)"><flowRegion
         id="flowRegion4547"><rect
           id="rect4549"
           width="120"
           height="62.857143"
           x="80"
           y="342.27225" /></flowRegion><flowPara
         id="flowPara4551"
         style="font-size:40px;line-height:1.25">variety = </flowPara></flowRoot>    <rect
       style="fill:none;fill-opacity:1;stroke:#000000;stroke-width:0.3781445;stroke-miterlimit:4;stroke-dasharray:none;stroke-opacity:1"
       id="rect815"
       width="126.70074"
       height="86.943802"
       x="9.7162914"
       y="138.81976" />
    <flowRoot
       xml:space="preserve"
       id="flowRoot4553"
       style="font-style:normal;font-variant:normal;font-weight:bold;font-stretch:normal;line-height:0.01%;font-family:'CMU Bright';-inkscape-font-specification:'CMU Bright, Bold';text-align:start;letter-spacing:0px;word-spacing:0px;writing-mode:lr-tb;text-anchor:start;fill:#00caa3;fill-opacity:1;stroke:none"
       transform="translate(-0.5291667,-3.1034358)"><flowRegion
         id="flowRegion4555"
         style="font-style:normal;font-variant:normal;font-weight:bold;font-stretch:normal;font-size:7.05555534px;font-family:'CMU Bright';-inkscape-font-specification:'CMU Bright, Bold';text-align:start;writing-mode:lr-tb;text-anchor:start;fill:#00caa3;fill-opacity:1"><rect
           id="rect4557"
           width="228.67558"
           height="26.080357"
           x="11.141079"
           y="227.11792"
           style="font-style:normal;font-variant:normal;font-weight:bold;font-stretch:normal;font-size:7.05555534px;font-family:'CMU Bright';-inkscape-font-specification:'CMU Bright, Bold';text-align:start;writing-mode:lr-tb;text-anchor:start;fill:#00caa3;fill-opacity:1" /></flowRegion><flowPara
         id="flowPara4559"
         style="font-style:normal;font-variant:normal;font-weight:bold;font-stretch:normal;font-size:9.17222214px;line-height:1.25;font-family:'CMU Bright';-inkscape-font-specification:'CMU Bright, Bold';text-align:start;writing-mode:lr-tb;text-anchor:start">ptype=cottage</flowPara></flowRoot>    <rect
       style="fill:none;fill-opacity:1;stroke:#00caa3;stroke-width:0.45479098;stroke-miterlimit:4;stroke-dasharray:none;stroke-opacity:1"
       id="rect815-7"
       width="62.554867"
       height="86.67588"
       x="9.7175322"
       y="138.821" />
    <flowRoot
       xml:space="preserve"
       id="flowRoot4553-1"
       style="font-style:normal;font-variant:normal;font-weight:bold;font-stretch:normal;line-height:0.01%;font-family:'CMU Bright';-inkscape-font-specification:'CMU Bright, Bold';text-align:start;letter-spacing:0px;word-spacing:0px;writing-mode:lr-tb;text-anchor:start;fill:#000000;fill-opacity:1;stroke:none"
       transform="matrix(0.26458333,0,0,0.26458333,49.367657,134.69763)"><flowRegion
         id="flowRegion4555-4"
         style="font-style:normal;font-variant:normal;font-weight:bold;font-stretch:normal;font-size:26.66666794px;font-family:'CMU Bright';-inkscape-font-specification:'CMU Bright, Bold';text-align:start;writing-mode:lr-tb;text-anchor:start"><rect
           id="rect4557-9"
           width="864.28571"
           height="98.571426"
           x="95.714287"
           y="337.98651"
           style="font-style:normal;font-variant:normal;font-weight:bold;font-stretch:normal;font-size:26.66666794px;font-family:'CMU Bright';-inkscape-font-specification:'CMU Bright, Bold';text-align:start;writing-mode:lr-tb;text-anchor:start" /></flowRegion><flowPara
         id="flowPara4559-8"
         style="font-style:normal;font-variant:normal;font-weight:bold;font-stretch:normal;font-size:34.66666794px;line-height:1.25;font-family:'CMU Bright';-inkscape-font-specification:'CMU Bright, Bold';text-align:start;writing-mode:lr-tb;text-anchor:start">ptype≠cottage</flowPara></flowRoot>    <rect
       style="fill:none;fill-opacity:1;stroke:#000000;stroke-width:0.37814477;stroke-miterlimit:4;stroke-dasharray:none;stroke-opacity:1"
       id="rect815-9"
       width="126.70087"
       height="86.943855"
       x="148.76529"
       y="138.84341" />
    <flowRoot
       xml:space="preserve"
       id="flowRoot4553-7"
       style="font-style:normal;font-variant:normal;font-weight:bold;font-stretch:normal;line-height:0.01%;font-family:'CMU Bright';-inkscape-font-specification:'CMU Bright, Bold';font-variant-ligatures:normal;font-variant-caps:normal;font-variant-numeric:normal;font-feature-settings:normal;text-align:start;letter-spacing:0px;word-spacing:0px;writing-mode:lr-tb;text-anchor:start;fill:#806600;fill-opacity:1;stroke:none"
       transform="matrix(0.26458333,0,0,0.26458333,127.61177,106.42559)"><flowRegion
         id="flowRegion4555-9"
         style="font-style:normal;font-variant:normal;font-weight:bold;font-stretch:normal;font-size:26.66666794px;font-family:'CMU Bright';-inkscape-font-specification:'CMU Bright, Bold';font-variant-ligatures:normal;font-variant-caps:normal;font-variant-numeric:normal;font-feature-settings:normal;text-align:start;writing-mode:lr-tb;text-anchor:start;fill:#806600;fill-opacity:1"><rect
           id="rect4557-2"
           width="864.28571"
           height="98.571426"
           x="95.714287"
           y="337.98651"
           style="font-style:normal;font-variant:normal;font-weight:bold;font-stretch:normal;font-size:26.66666794px;font-family:'CMU Bright';-inkscape-font-specification:'CMU Bright, Bold';font-variant-ligatures:normal;font-variant-caps:normal;font-variant-numeric:normal;font-feature-settings:normal;text-align:start;writing-mode:lr-tb;text-anchor:start;fill:#806600;fill-opacity:1" /></flowRegion><flowPara
         id="flowPara1665"
         style="font-style:normal;font-variant:normal;font-weight:bold;font-stretch:normal;font-size:34.66666794px;line-height:1.25;font-family:'CMU Bright';-inkscape-font-specification:'CMU Bright, Bold';font-variant-ligatures:normal;font-variant-caps:normal;font-variant-numeric:normal;font-feature-settings:normal;text-align:start;writing-mode:lr-tb;text-anchor:start;fill:#806600">state≠v.good </flowPara></flowRoot>    <rect
       style="fill:none;fill-opacity:1;stroke:#00caa3;stroke-width:0.35786539;stroke-miterlimit:4;stroke-dasharray:none;stroke-opacity:1"
       id="rect815-7-6"
       width="62.719631"
       height="53.52684"
       x="148.76489"
       y="171.99545" />
    <rect
       style="fill:none;fill-opacity:1;stroke:#b71818;stroke-width:0.36223006;stroke-miterlimit:4;stroke-dasharray:none;stroke-opacity:1"
       id="rect815-7-0-6-8"
       width="63.875706"
       height="53.847927"
       x="211.30212"
       y="171.82523" />
    <flowRoot
       xml:space="preserve"
       id="flowRoot4553-1-2-0"
       style="font-style:normal;font-variant:normal;font-weight:bold;font-stretch:normal;line-height:0.01%;font-family:'CMU Bright';-inkscape-font-specification:'CMU Bright, Bold';font-variant-ligatures:normal;font-variant-caps:normal;font-variant-numeric:normal;font-feature-settings:normal;text-align:start;letter-spacing:0px;word-spacing:0px;writing-mode:lr-tb;text-anchor:start;fill:#b71818;fill-opacity:1;stroke:none"
       transform="matrix(0.26458333,0,0,0.26458333,194.02035,99.078515)"><flowRegion
         id="flowRegion4555-4-2-4"
         style="font-style:normal;font-variant:normal;font-weight:bold;font-stretch:normal;font-size:26.66666794px;font-family:'CMU Bright';-inkscape-font-specification:'CMU Bright, Bold';font-variant-ligatures:normal;font-variant-caps:normal;font-variant-numeric:normal;font-feature-settings:normal;text-align:start;writing-mode:lr-tb;text-anchor:start;fill:#b71818;fill-opacity:1"><rect
           id="rect4557-9-5-9"
           width="864.28571"
           height="98.571426"
           x="95.714287"
           y="337.98651"
           style="font-style:normal;font-variant:normal;font-weight:bold;font-stretch:normal;font-size:26.66666794px;font-family:'CMU Bright';-inkscape-font-specification:'CMU Bright, Bold';font-variant-ligatures:normal;font-variant-caps:normal;font-variant-numeric:normal;font-feature-settings:normal;text-align:start;writing-mode:lr-tb;text-anchor:start;fill:#b71818;fill-opacity:1" /></flowRegion><flowPara
         id="flowPara4901-5"
         style="font-style:normal;font-variant:normal;font-weight:bold;font-stretch:normal;font-size:34.66666794px;line-height:1.25;font-family:'CMU Bright';-inkscape-font-specification:'CMU Bright, Bold';font-variant-ligatures:normal;font-variant-caps:normal;font-variant-numeric:normal;font-feature-settings:normal;text-align:start;writing-mode:lr-tb;text-anchor:start">state=good</flowPara></flowRoot>    <rect
       style="fill:none;fill-opacity:1;stroke:#108023;stroke-width:0.27994767;stroke-miterlimit:4;stroke-dasharray:none;stroke-opacity:1"
       id="rect815-7-0-0-5"
       width="62.73975"
       height="32.745117"
       x="148.77205"
       y="139.07703" />
    <flowRoot
       xml:space="preserve"
       id="flowRoot4553-6-3-8-4-0"
       style="font-style:normal;font-variant:normal;font-weight:bold;font-stretch:normal;line-height:0.01%;font-family:'CMU Bright';-inkscape-font-specification:'CMU Bright, Bold';font-variant-ligatures:normal;font-variant-caps:normal;font-variant-numeric:normal;font-feature-settings:normal;text-align:start;letter-spacing:0px;word-spacing:0px;writing-mode:lr-tb;text-anchor:start;fill:#108023;fill-opacity:1;stroke:none"
       transform="matrix(0.26458333,0,0,0.26458333,127.85654,53.891621)"><flowRegion
         id="flowRegion4555-7-1-1-4-1"
         style="font-style:normal;font-variant:normal;font-weight:bold;font-stretch:normal;font-size:26.66666794px;font-family:'CMU Bright';-inkscape-font-specification:'CMU Bright, Bold';font-variant-ligatures:normal;font-variant-caps:normal;font-variant-numeric:normal;font-feature-settings:normal;text-align:start;writing-mode:lr-tb;text-anchor:start;fill:#108023;fill-opacity:1"><rect
           id="rect4557-5-0-6-9-6"
           width="864.28571"
           height="98.571426"
           x="95.714287"
           y="337.98651"
           style="font-style:normal;font-variant:normal;font-weight:bold;font-stretch:normal;font-size:26.66666794px;font-family:'CMU Bright';-inkscape-font-specification:'CMU Bright, Bold';font-variant-ligatures:normal;font-variant-caps:normal;font-variant-numeric:normal;font-feature-settings:normal;text-align:start;writing-mode:lr-tb;text-anchor:start;fill:#108023;fill-opacity:1" /></flowRegion><flowPara
         id="flowPara4617-4-6-0"
         style="font-style:normal;font-variant:normal;font-weight:bold;font-stretch:normal;font-size:34.66666794px;line-height:1.25;font-family:'CMU Bright';-inkscape-font-specification:'CMU Bright, Bold';font-variant-ligatures:normal;font-variant-caps:normal;font-variant-numeric:normal;font-feature-settings:normal;text-align:start;writing-mode:lr-tb;text-anchor:start">state=v.good</flowPara><flowPara
         id="flowPara5035"
         style="font-style:normal;font-variant:normal;font-weight:bold;font-stretch:normal;font-size:26.66666794px;line-height:1.25;font-family:'CMU Bright';-inkscape-font-specification:'CMU Bright, Bold';font-variant-ligatures:normal;font-variant-caps:normal;font-variant-numeric:normal;font-feature-settings:normal;text-align:start;writing-mode:lr-tb;text-anchor:start"> </flowPara></flowRoot>    <flowRoot
       xml:space="preserve"
       id="flowRoot4553-1-2-0-2"
       style="font-style:normal;font-variant:normal;font-weight:bold;font-stretch:normal;line-height:0.01%;font-family:'CMU Bright';-inkscape-font-specification:'CMU Bright, Bold';font-variant-ligatures:normal;font-variant-caps:normal;font-variant-numeric:normal;font-feature-settings:normal;text-align:start;letter-spacing:0px;word-spacing:0px;writing-mode:lr-tb;text-anchor:start;fill:#000000;fill-opacity:1;stroke:none"
       transform="matrix(0.26458333,0,0,0.26458333,195.8073,53.250216)"><flowRegion
         id="flowRegion4555-4-2-4-1"
         style="font-style:normal;font-variant:normal;font-weight:bold;font-stretch:normal;font-size:26.66666794px;font-family:'CMU Bright';-inkscape-font-specification:'CMU Bright, Bold';font-variant-ligatures:normal;font-variant-caps:normal;font-variant-numeric:normal;font-feature-settings:normal;text-align:start;writing-mode:lr-tb;text-anchor:start;fill:#000000;fill-opacity:1"><rect
           id="rect4557-9-5-9-0"
           width="864.28571"
           height="98.571426"
           x="95.714287"
           y="337.98651"
           style="font-style:normal;font-variant:normal;font-weight:bold;font-stretch:normal;font-size:26.66666794px;font-family:'CMU Bright';-inkscape-font-specification:'CMU Bright, Bold';font-variant-ligatures:normal;font-variant-caps:normal;font-variant-numeric:normal;font-feature-settings:normal;text-align:start;writing-mode:lr-tb;text-anchor:start;fill:#000000;fill-opacity:1" /></flowRegion><flowPara
         id="flowPara4901-5-2"
         style="font-style:normal;font-variant:normal;font-weight:bold;font-stretch:normal;font-size:34.66666794px;line-height:1.25;font-family:'CMU Bright';-inkscape-font-specification:'CMU Bright, Bold';font-variant-ligatures:normal;font-variant-caps:normal;font-variant-numeric:normal;font-feature-settings:normal;text-align:start;writing-mode:lr-tb;text-anchor:start">state≠good</flowPara></flowRoot>    <rect
       style="fill:none;fill-opacity:1;stroke:#777777;stroke-width:1.55900002;stroke-miterlimit:4;stroke-dasharray:9.354, 9.354;stroke-dashoffset:0;stroke-opacity:1"
       id="rect1878"
       width="63.58934"
       height="72.472771"
       x="29.850918"
       y="146.44337" />
    <flowRoot
       xml:space="preserve"
       id="flowRoot4553-3"
       style="font-style:normal;font-variant:normal;font-weight:bold;font-stretch:normal;font-size:9.17222214px;line-height:0.01%;font-family:'CMU Bright';-inkscape-font-specification:'CMU Bright, Bold';text-align:start;letter-spacing:0px;word-spacing:0px;writing-mode:lr-tb;text-anchor:start;fill:#00caa3;fill-opacity:1;stroke:none"
       transform="translate(138.57762,-3.1034358)"><flowRegion
         id="flowRegion4555-6"
         style="font-style:normal;font-variant:normal;font-weight:bold;font-stretch:normal;font-size:9.17222214px;font-family:'CMU Bright';-inkscape-font-specification:'CMU Bright, Bold';text-align:start;writing-mode:lr-tb;text-anchor:start;fill:#00caa3;fill-opacity:1"><rect
           id="rect4557-7"
           width="228.67558"
           height="26.080357"
           x="11.141079"
           y="227.11792"
           style="font-style:normal;font-variant:normal;font-weight:bold;font-stretch:normal;font-size:9.17222214px;font-family:'CMU Bright';-inkscape-font-specification:'CMU Bright, Bold';text-align:start;writing-mode:lr-tb;text-anchor:start;fill:#00caa3;fill-opacity:1" /></flowRegion><flowPara
         id="flowPara4559-5"
         style="font-style:normal;font-variant:normal;font-weight:bold;font-stretch:normal;font-size:9.17222214px;line-height:1.25;font-family:'CMU Bright';-inkscape-font-specification:'CMU Bright, Bold';text-align:start;writing-mode:lr-tb;text-anchor:start">ptype=cottage</flowPara></flowRoot>    <flowRoot
       xml:space="preserve"
       id="flowRoot4553-1-3"
       style="font-style:normal;font-variant:normal;font-weight:bold;font-stretch:normal;line-height:0.01%;font-family:'CMU Bright';-inkscape-font-specification:'CMU Bright, Bold';text-align:start;letter-spacing:0px;word-spacing:0px;writing-mode:lr-tb;text-anchor:start;fill:#000000;fill-opacity:1;stroke:none"
       transform="matrix(0.26458333,0,0,0.26458333,187.94528,134.69763)"><flowRegion
         id="flowRegion4555-4-5"
         style="font-style:normal;font-variant:normal;font-weight:bold;font-stretch:normal;font-size:26.66666794px;font-family:'CMU Bright';-inkscape-font-specification:'CMU Bright, Bold';text-align:start;writing-mode:lr-tb;text-anchor:start"><rect
           id="rect4557-9-6"
           width="864.28571"
           height="98.571426"
           x="95.714287"
           y="337.98651"
           style="font-style:normal;font-variant:normal;font-weight:bold;font-stretch:normal;font-size:26.66666794px;font-family:'CMU Bright';-inkscape-font-specification:'CMU Bright, Bold';text-align:start;writing-mode:lr-tb;text-anchor:start" /></flowRegion><flowPara
         id="flowPara4559-8-2"
         style="font-style:normal;font-variant:normal;font-weight:bold;font-stretch:normal;font-size:34.66666794px;line-height:1.25;font-family:'CMU Bright';-inkscape-font-specification:'CMU Bright, Bold';text-align:start;writing-mode:lr-tb;text-anchor:start">ptype≠cottage</flowPara></flowRoot>    <text
       xml:space="preserve"
       style="font-style:normal;font-variant:normal;font-weight:bold;font-stretch:normal;font-size:10.58333302px;line-height:1.25;font-family:'CMU Bright';-inkscape-font-specification:'CMU Bright, Bold';font-variant-ligatures:normal;font-variant-caps:normal;font-variant-numeric:normal;font-feature-settings:normal;text-align:start;letter-spacing:0px;word-spacing:0px;writing-mode:lr-tb;text-anchor:start;fill:#000000;fill-opacity:1;stroke:none;stroke-width:0.26458332"
       x="17.603693"
       y="169.57008"
       id="text880"><tspan
         sodipodi:role="line"
         id="tspan878"
         x="17.603693"
         y="169.57008"
         style="font-size:14.11111069px;stroke-width:0.26458332">*</tspan></text>
    <text
       xml:space="preserve"
       style="font-style:normal;font-variant:normal;font-weight:bold;font-stretch:normal;font-size:10.58333302px;line-height:1.25;font-family:'CMU Bright';-inkscape-font-specification:'CMU Bright, Bold';font-variant-ligatures:normal;font-variant-caps:normal;font-variant-numeric:normal;font-feature-settings:normal;text-align:start;letter-spacing:0px;word-spacing:0px;writing-mode:lr-tb;text-anchor:start;fill:#000000;fill-opacity:1;stroke:none;stroke-width:0.26458332"
       x="42.565937"
       y="214.05478"
       id="text914"><tspan
         sodipodi:role="line"
         id="tspan912"
         x="42.565937"
         y="214.05478"
         style="stroke-width:0.26458332">+</tspan></text>
    <text
       xml:space="preserve"
       style="font-style:normal;font-variant:normal;font-weight:bold;font-stretch:normal;font-size:10.58333302px;line-height:1.25;font-family:'CMU Bright';-inkscape-font-specification:'CMU Bright, Bold';font-variant-ligatures:normal;font-variant-caps:normal;font-variant-numeric:normal;font-feature-settings:normal;text-align:start;letter-spacing:0px;word-spacing:0px;writing-mode:lr-tb;text-anchor:start;fill:#000000;fill-opacity:1;stroke:none;stroke-width:0.26458332"
       x="81.05275"
       y="161.50693"
       id="text914-2"><tspan
         sodipodi:role="line"
         id="tspan912-4"
         x="81.05275"
         y="161.50693"
         style="stroke-width:0.26458332">+</tspan></text>
    <text
       xml:space="preserve"
       style="font-style:normal;font-variant:normal;font-weight:bold;font-stretch:normal;font-size:10.58333302px;line-height:1.25;font-family:'CMU Bright';-inkscape-font-specification:'CMU Bright, Bold';font-variant-ligatures:normal;font-variant-caps:normal;font-variant-numeric:normal;font-feature-settings:normal;text-align:start;letter-spacing:0px;word-spacing:0px;writing-mode:lr-tb;text-anchor:start;fill:#000000;fill-opacity:1;stroke:none;stroke-width:0.26458332"
       x="120.84307"
       y="180.75906"
       id="text914-2-4"><tspan
         sodipodi:role="line"
         id="tspan912-4-5"
         x="120.84307"
         y="180.75906"
         style="font-size:14.11111069px;stroke-width:0.26458332">-</tspan></text>
    <text
       xml:space="preserve"
       style="font-style:normal;font-variant:normal;font-weight:bold;font-stretch:normal;font-size:10.58333302px;line-height:1.25;font-family:'CMU Bright';-inkscape-font-specification:'CMU Bright, Bold';font-variant-ligatures:normal;font-variant-caps:normal;font-variant-numeric:normal;font-feature-settings:normal;text-align:start;letter-spacing:0px;word-spacing:0px;writing-mode:lr-tb;text-anchor:start;fill:#000000;fill-opacity:1;stroke:none;stroke-width:0.26458332"
       x="121.11034"
       y="220.31496"
       id="text914-2-4-3"><tspan
         sodipodi:role="line"
         id="tspan912-4-5-6"
         x="121.11034"
         y="220.31496"
         style="font-size:14.11111069px;stroke-width:0.26458332">-</tspan></text>
    <text
       xml:space="preserve"
       style="font-style:normal;font-variant:normal;font-weight:bold;font-stretch:normal;font-size:10.58333302px;line-height:1.25;font-family:'CMU Bright';-inkscape-font-specification:'CMU Bright, Bold';font-variant-ligatures:normal;font-variant-caps:normal;font-variant-numeric:normal;font-feature-settings:normal;text-align:start;letter-spacing:0px;word-spacing:0px;writing-mode:lr-tb;text-anchor:start;fill:#000000;fill-opacity:1;stroke:none;stroke-width:0.26458332"
       x="255.81418"
       y="220.04768"
       id="text914-2-4-7"><tspan
         sodipodi:role="line"
         id="tspan912-4-5-5"
         x="255.81418"
         y="220.04768"
         style="font-size:14.11111069px;stroke-width:0.26458332">-</tspan></text>
    <text
       xml:space="preserve"
       style="font-style:normal;font-variant:normal;font-weight:bold;font-stretch:normal;font-size:10.58333302px;line-height:1.25;font-family:'CMU Bright';-inkscape-font-specification:'CMU Bright, Bold';font-variant-ligatures:normal;font-variant-caps:normal;font-variant-numeric:normal;font-feature-settings:normal;text-align:start;letter-spacing:0px;word-spacing:0px;writing-mode:lr-tb;text-anchor:start;fill:#000000;fill-opacity:1;stroke:none;stroke-width:0.26458332"
       x="257.41782"
       y="180.75906"
       id="text914-2-4-35"><tspan
         sodipodi:role="line"
         id="tspan912-4-5-62"
         x="257.41782"
         y="180.75906"
         style="font-size:14.11111069px;stroke-width:0.26458332">-</tspan></text>
    <text
       xml:space="preserve"
       style="font-style:normal;font-variant:normal;font-weight:bold;font-stretch:normal;font-size:10.58333302px;line-height:1.25;font-family:'CMU Bright';-inkscape-font-specification:'CMU Bright, Bold';font-variant-ligatures:normal;font-variant-caps:normal;font-variant-numeric:normal;font-feature-settings:normal;text-align:start;letter-spacing:0px;word-spacing:0px;writing-mode:lr-tb;text-anchor:start;fill:#000000;fill-opacity:1;stroke:none;stroke-width:0.26458332"
       x="215.48932"
       y="161.7742"
       id="text914-2-9"><tspan
         sodipodi:role="line"
         id="tspan912-4-1"
         x="215.48932"
         y="161.7742"
         style="stroke-width:0.26458332">+</tspan></text>
    <text
       xml:space="preserve"
       style="font-style:normal;font-variant:normal;font-weight:bold;font-stretch:normal;font-size:10.58333302px;line-height:1.25;font-family:'CMU Bright';-inkscape-font-specification:'CMU Bright, Bold';font-variant-ligatures:normal;font-variant-caps:normal;font-variant-numeric:normal;font-feature-settings:normal;text-align:start;letter-spacing:0px;word-spacing:0px;writing-mode:lr-tb;text-anchor:start;fill:#000000;fill-opacity:1;stroke:none;stroke-width:0.26458332"
       x="183.79681"
       y="214.05453"
       id="text914-2-2"><tspan
         sodipodi:role="line"
         id="tspan912-4-7"
         x="183.79681"
         y="214.05453"
         style="stroke-width:0.26458332">+</tspan></text>
    <text
       xml:space="preserve"
       style="font-style:normal;font-variant:normal;font-weight:bold;font-stretch:normal;font-size:10.58333302px;line-height:1.25;font-family:'CMU Bright';-inkscape-font-specification:'CMU Bright, Bold';font-variant-ligatures:normal;font-variant-caps:normal;font-variant-numeric:normal;font-feature-settings:normal;text-align:start;letter-spacing:0px;word-spacing:0px;writing-mode:lr-tb;text-anchor:start;fill:#000000;fill-opacity:1;stroke:none;stroke-width:0.26458332"
       x="17.716692"
       y="190.73608"
       id="text880-0"><tspan
         sodipodi:role="line"
         id="tspan878-9"
         x="17.716692"
         y="190.73608"
         style="font-size:14.11111069px;stroke-width:0.26458332">*</tspan></text>
    <text
       xml:space="preserve"
       style="font-style:normal;font-variant:normal;font-weight:bold;font-stretch:normal;font-size:10.58333302px;line-height:1.25;font-family:'CMU Bright';-inkscape-font-specification:'CMU Bright, Bold';font-variant-ligatures:normal;font-variant-caps:normal;font-variant-numeric:normal;font-feature-settings:normal;text-align:start;letter-spacing:0px;word-spacing:0px;writing-mode:lr-tb;text-anchor:start;fill:#000000;fill-opacity:1;stroke:none;stroke-width:0.26458332"
       x="156.52869"
       y="168.96408"
       id="text880-3"><tspan
         sodipodi:role="line"
         id="tspan878-6"
         x="156.52869"
         y="168.96408"
         style="font-size:14.11111069px;stroke-width:0.26458332">*</tspan></text>
    <text
       xml:space="preserve"
       style="font-style:normal;font-variant:normal;font-weight:bold;font-stretch:normal;font-size:10.58333302px;line-height:1.25;font-family:'CMU Bright';-inkscape-font-specification:'CMU Bright, Bold';font-variant-ligatures:normal;font-variant-caps:normal;font-variant-numeric:normal;font-feature-settings:normal;text-align:start;letter-spacing:0px;word-spacing:0px;writing-mode:lr-tb;text-anchor:start;fill:#000000;fill-opacity:1;stroke:none;stroke-width:0.26458332"
       x="156.5947"
       y="190.61209"
       id="text880-0-0"><tspan
         sodipodi:role="line"
         id="tspan878-9-6"
         x="156.5947"
         y="190.61209"
         style="font-size:14.11111069px;stroke-width:0.26458332">*</tspan></text>
  </g>
</svg>
